102141 612019 470
67177 344634 443
707055 271775 509
773672 855815 525
403657 247907 441
394035 614443 470
361013 813002 509
761516 590255 509
387550 623600 470
200124 913650 525
734744 886499 525
387154 671488 509
972664 772818 525
233408 517630 470
653277 389266 509
509208 148953 449
647085 222554 509
654815 630515 416
726560 99189 509
367662 364635 361
900285 591738 525
882080 403354 525
877390 533936 525
339159 4216 443
895326 50961 525
914407 859239 476
288009 696584 509
493353 558787 470
802858 415294 509
61921 446328 449
12704 547451 470
899563 405886 525
25575 420418 449
132060 106935 349
300730 692095 509
264844 99012 443
373441 608980 470
306600 473324 449
415844 542272 470
584345 622350 447
545547 576796 452
672238 109216 509
186577 730684 509
321082 804234 509
502158 317095 449
11015 711331 509
179275 970409 525
163858 890081 525
174164 469640 449
744639 557413 509
582456 420349 470
853439 546520 525
672975 838218 525
626200 674795 509
111841 87280 354
69838 38119 340
613553 702108 509
64190 464534 449
534073 146159 470
55018 711070 509
261088 986713 525
373637 651633 509
475443 506255 426
458775 952888 525
587413 315698 470
570376 371706 470
471437 866868 525
948481 618039 525
627469 512561 509
24175 376602 443
941799 77112 525
422463 903474 525
691665 542152 509
827847 5319 509
767261 800224 468
11953 293129 443
838365 594498 525
440240 185277 449
508265 437432 444
509335 394205 449
712410 505071 509
493390 275828 449
169856 876822 525
995474 486008 525
56454 73503 335
867849 919281 476
91784 79516 333
799911 249552 509
221655 435401 449
590113 906002 525
887058 8252 525
549973 853330 525
609651 233456 470
391906 447347 449
230980 387033 441
333647 645805 509
491095 566161 470
136829 932739 525
193056 548655 470
690254 891949 525
404400 355264 436
71515 274197 443
197273 688792 509
329048 365076 441
806878 185219 509
354726 994865 525
119746 823771 509
785219 160482 509
684101 104668 509
133511 955280 525
383055 461498 449
185394 962570 525
648258 994338 525
544097 599445 452
361720 575168 470
773484 600759 509
187578 188569 316
482119 252204 449
57802 857449 525
433403 256423 449
413342 181846 449
702632 136492 509
252572 9563 443
514547 529260 439
998933 231561 525
718604 741510 424
192259 840722 525
393667 477795 449
822138 333384 509
675518 844001 525
188960 405658 443
932342 144274 525
225095 857841 525
936090 60404 525
381259 408667 436
245486 222186 443
522588 816229 509
187426 378574 443
965568 32968 525
925075 703913 525
993172 240424 525
424301 238750 449
643684 786057 504
630073 893037 525
144901 40018 375
68436 477442 449
210389 468277 449
914893 393169 525
694681 756685 504
319726 426331 449
444484 470680 444
804313 236441 509
942230 694132 525
51063 743361 509
178583 844068 525
790277 291065 509
601837 879515 525
623476 537434 452
721653 285953 509
301755 19559 443
192351 454117 449
280700 513769 470
582820 807131 509
264201 675573 509
332317 977404 525
913663 826922 525
367646 913104 525
391090 512011 470
202773 559890 470
886700 637965 525
692638 266519 509
273687 312600 389
438170 223783 449
433281 365441 449
835366 165666 509
800561 303167 509
991824 225595 525
166628 622146 470
320577 769733 509
613476 597724 403
402289 668161 509
470909 150851 449
42940 348176 443
830730 221037 509
121954 213840 383
107581 559019 470
972658 729376 525
697690 857404 525
568892 34386 470
582335 374216 470
85519 39500 351
93824 809791 509
836555 749597 468
521183 542648 408
683024 763758 504
508615 938792 525
334170 196649 443
944726 649746 525
813032 354321 509
30101 460095 449
142331 182083 383
260800 702301 509
101312 236373 443
550721 168878 470
835204 803508 450
639919 651694 416
718929 531232 509
128222 157486 383
65209 849180 525
299905 180633 443
74020 25640 340
877576 692241 525
916131 697092 525
157760 487118 449
321134 435525 449
722586 274903 509
453301 672649 509
675199 239321 509
248414 910965 525
58807 887756 525
360 449827 449
346762 490953 449
436822 993011 525
774151 857232 525
128400 965948 525
601253 654697 509
8722 780630 509
6237 156016 375
584491 254652 470
76692 112455 354
598365 632510 509
363126 879644 525
56232 726067 509
772348 768664 393
396180 493104 449
202114 250356 443
168860 559039 470
832843 43822 509
436129 316026 449
253364 548088 470
246352 476912 449
833407 218935 509
720453 191393 509
71809 55510 335
925440 616973 525
203578 519801 470
206317 401243 443
672068 563054 509
390076 858652 525
640738 20258 509
