416260 702343
869205 461592
10138 986198
280754 439785
756558 37362
125801 958536
145471 489368
304774 51907
437897 631078
952263 847398
734116 668816
269788 824500
519942 785936
15919 547031
802775 849827
270442 954308
63880 225600
741251 275593
405158 756415
644866 788233
872996 811810
721898 764124
489176 377388
306289 833574
242579 833538
87438 776288
213166 77368
346391 100503
849523 154392
237555 791049
239485 833060
961436 598026
384653 664377
393969 125747
772498 913555
467967 703173
789429 665654
714733 879836
332722 75995
184006 437488
59514 346491
133831 13347
13132 813551
201783 744444
352550 139840
310175 514615
514740 689465
487030 714760
93280 396934
766995 17008
167461 783591
523929 496284
804551 827891
829091 609586
225877 899
174837 967365
406464 460619
983318 223647
166379 937321
693642 967224
241806 947428
687014 673193
292401 38425
485714 785722
228723 514304
945112 104613
581746 493988
793809 927787
526518 871156
766423 992183
243934 376775
97388 778160
176908 354815
536320 813754
979459 313817
985792 211154
286084 135755
4644 779399
536301 140635
132644 632192
498013 784912
776490 509406
837272 683415
478818 352679
547290 815715
658249 455017
819336 509458
163850 878997
773244 555189
570220 983535
111458 315798
216686 60460
213178 636299
579749 25594
437702 60858
82333 41719
480830 349531
423777 858491
744308 239715
803295 69358
204885 431161
728689 258752
955869 513864
231572 767086
680176 719945
210395 907105
737779 869087
494803 45018
540007 841979
100199 308302
352675 524931
828747 610153
124652 430809
760811 51972
439425 582656
680576 518094
548533 455342
169035 350330
520823 336388
497119 454183
906925 329545
192287 18529
573552 598904
127155 857650
107484 408181
59740 331384
269015 149084
672159 580126
865889 878684
849729 387943
698006 173882
376023 409113
889050 472487
19782 168245
670863 714786
666639 152281
488117 959050
471914 782205
438368 547117
135966 740344
939032 634105
278449 386128
847739 88291
37366 959880
665192 23742
731241 860893
98015 629027
894943 455617
78433 600211
651096 987900
679995 161451
779713 783491
598139 738754
10426 485808
192682 782035
667455 280776
694297 201058
438702 542913
916743 696
796746 641194
984882 373365
838390 786482
981812 182010
773638 545206
90200 40386
20872 907007
785360 531648
385346 517328
287876 326335
623542 496303
873670 917091
345541 867415
490046 113452
227192 141339
615882 582319
871239 308569
609025 466951
651890 503131
729726 735659
614433 899489
386987 598944
1630 970418
797958 965736
530278 240932
296602 60924
15802 307493
61874 656863
21004 822193
388586 396554
930906 323339
43606 586054
935675 845554
633706 974075
250488 717026
380653 120710
642149 612044
263387 243243
148369 602059
362866 643969
61500 818774
388794 474395
139984 85531
544406 773692
790636 521823
41707 825016
824858 604098
870804 253698
246616 31681
954447 943695
260049 267051
66598 91040
971951 248407
990838 386999
589386 851222
457730 79448
384677 323197
754978 112743
935203 434706
732656 63993
555263 740308
70400 894750
437104 711706
219718 539896
983064 321130
539012 934532
506253 320547
940172 630762
887620 83563
297988 843891
10202 448717
186123 822468
32446 275214
621690 525325
616175 965053
239051 704925
462481 437785
370250 515726
394468 424439
198411 661476
134797 683874
255745 752313
578472 472205
534848 505214
506526 36829
316671 126617
329439 67032
8068 184655
858486 786156
945654 498235
55688 995950
934386 189883
839448 394016
648352 151644
911101 607909
357834 308239
180238 349737
495017 950952
506932 314091
592403 649052
525225 292979
76445 258521
111504 461867
965390 164592
273885 476711
716352 249468
703109 525448
425181 590993
662685 183999
944628 979005
213916 385427
755467 921497
68057 879357
430885 511305
184980 689518
451682 872239
