299 182
195 991
277 40
380 671
65 529
54 205
48 653
193 827
26 56
422 595
47 545
397 754
420 775
447 947
437 322
50 914
468 28
157 621
56 606
253 814
301 435
372 210
371 408
343 269
443 741
360 187
421 946
157 36
206 824
369 146
457 400
124 645
146 177
328 187
167 670
428 686
51 439
406 711
107 47
377 354
109 753
87 981
201 668
373 344
94 450
451 462
87 342
303 672
347 698
208 338
344 56
259 117
379 135
128 222
367 362
256 890
111 656
150 74
325 340
282 577
284 67
369 993
252 303
305 535
99 77
185 266
390 257
455 346
290 769
134 340
183 724
317 907
355 731
389 351
274 709
440 456
495 156
317 799
104 576
177 214
311 428
319 246
157 703
265 673
167 994
261 154
288 333
322 611
135 331
149 923
270 534
447 567
389 804
195 510
128 941
153 958
149 139
299 812
363 161
247 141
23014 54202
19323 46231
85778 91235
4035 74992
20179 40640
4611 61129
65918 83173
66866 55611
74140 96253
77850 37118
69274 73137
96772 33525
36364 3021
2217 46470
26427 81132
31704 15988
5628 40142
12795 43294
51197 47955
79688 26224
21028 28875
83599 3538
93324 82641
62915 27410
26950 53135
65862 43580
95517 64106
35430 23755
82865 7150
40894 93542
3712 44730
28003 27452
90789 18975
92649 59377
58026 56655
66631 73942
75239 75708
61714 48341
12096 95383
1647 4956
55332 46344
87815 64504
85224 16756
2512 51096
16209 82377
43311 90812
67096 80511
75601 36117
51413 34829
34894 95678
7746 32758
63106 36386
16124 96727
5153 18279
77300 56180
83537 77339
70317 78688
11882 5192
6384 52618
15052 10585
11167 30098
30276 70403
50140 34182
69294 21159
80532 29456
66646 33660
23827 34391
85890 4562
58685 1056
8330 97367
19820 23407
48846 69769
91771 61862
98980 5280
58094 37545
40950 21431
51484 77825
13892 70668
83318 2934
89964 36546
73526 1528
68044 34957
24161 28212
88902 22973
39245 78459
2026 4206
76277 31364
15613 93303
41332 25671
2943 28889
90746 50676
10691 78736
38892 43474
72471 86338
88670 75978
37044 38853
34144 43958
99616 48707
55451 73269
8677 93897
37658 8301
28339 28070
70693 13106
68392 87843
26580 6113
65806 55797
82029 62420
73072 14365
55794 41290
79012 24968
67027 20464
31767 12896
39088 73820
2757 52217
4972 69022
64176 14062
42886 16546
96506 48153
17439 86882
25593 11651
32338 70978
29601 56570
38383 55555
35378 81763
45983 2908
31266 83127
10512 22951
6290 64104
14381 90846
57421 15620
24350 74945
2884 24386
88163 61449
93266 8673
84523 97340
28573 70222
12893 63249
42787 1513
97110 13512
54657 92418
94049 30820
32441 72988
93703 38586
76875 47741
31304 84669
68183 58426
14435 36202
76558 38410
39131 77389
82267 93788
260577 173783
251843 390200
548671 541342
847201 300713
144034 991546
402642 495605
848161 373287
110916 426196
121705 993739
882094 145665
520477 182073
445200 444223
318113 651783
701829 713151
684063 835936
333397 620472
431631 713760
237782 956215
609313 747046
142816 115969
391288 653813
865093 238803
412778 119844
477890 885568
600564 655449
341925 309503
927549 704619
490429 161063
496692 799457
740534 444018
776685 166469
772180 124333
558359 334642
384878 446992
622834 632424
561498 811820
957225 322465
107791 890821
994217 143855
939124 345191
935578 107900
324453 994601
823774 607596
775328 906718
423988 850266
866113 180862
154074 975420
814844 292118
638014 330484
515539 434919
