41388 456904
361931 338625
413700 309624
519569 668288
143588 953353
595771 285662
596660 199258
742525 260901
485878 305216
32532 263188
99715 763659
999399 67553
748129 481545
943241 965953
27008 943582
428792 601975
505367 661023
493154 57205
979697 898709
838110 44193
976890 317413
837280 733079
459247 479491
160829 715227
56914 286474
647763 595946
447732 580000
784461 783388
121872 344168
96027 313373
659666 534748
957381 157017
641825 445363
682849 813631
732423 565075
14403 209564
49642 65749
23393 656458
968778 9148
933848 408319
844103 822835
92539 563331
699139 319008
101835 170887
454548 782232
25295 613351
255524 922100
259727 813687
786274 191862
807812 669935
444993 200514
768596 972428
981872 671726
508419 487147
457490 710831
648680 651709
132421 668250
135288 860668
675704 167369
353666 827836
422961 978446
619646 858957
474733 366989
47348 820361
692177 259559
905161 501273
759813 176205
541929 340365
607994 776869
481776 337662
388704 226882
861579 63791
365956 837367
37675 199679
869949 795318
294904 190967
10084 216897
284662 519345
199691 300064
556680 267345
873390 800903
977795 314062
377141 213520
761674 490588
210118 826196
938288 246084
260894 12922
154320 676443
603825 646029
896458 815301
421167 460780
173310 954267
930061 131152
459913 627430
943078 101893
398866 981812
654065 697784
400908 311112
349109 30559
305449 138146
918933 585433
185209 833105
897383 74260
97323 511785
460006 745857
232482 123773
340025 601245
647480 15407
260438 596315
423548 305711
921008 796876
618524 671783
851121 670212
66100 842017
586798 369530
128231 896296
680304 525053
460813 44507
439454 165834
202130 524281
470361 309251
650264 535857
695762 234933
343120 697468
962376 252447
195799 736524
881730 82365
586353 580204
945412 44825
97301 784842
555979 344812
781000 915726
674213 898026
246132 223591
452125 118253
225697 985050
283211 498144
280708 92053
710328 93882
723289 566530
354604 600209
698213 204371
279501 469709
892115 385692
452542 652703
332998 381721
631393 440755
881673 352433
863645 641046
36698 541757
521615 245572
986946 319227
93089 515549
522214 431875
518297 892699
298877 5054
516088 520816
835661 356648
880060 832076
377556 744216
324904 867573
93223 762955
896172 544116
361138 348454
682567 556194
945513 374998
789308 681567
910708 608036
614830 806512
695083 112539
471153 826777
658456 844165
856856 333583
677584 342929
276302 843891
784899 413358
4397 482883
541499 129676
380864 395407
461529 696573
642806 874282
486546 462392
796255 284066
212368 340989
54636 975920
359992 21031
18917 184993
382062 290483
308286 548211
339542 773302
77784 932775
751958 953499
576859 429613
664703 524237
425004 138901
606018 889604
480950 127427
530796 984887
16262 508413
279215 282207
793649 995438
865502 784076
732915 373852
583367 510154
751762 363214
695754 172542
892417 360358
344407 179325
552638 6280
199801 361589
149990 736765
801684 880213
890612 585054
654956 944442
778466 88892
928090 226181
589403 959348
800195 962983
400311 962147
869102 125118
695467 198816
395551 666731
568124 158005
584182 151855
802114 880404
911565 902906
849465 400684
50999 398171
689595 693774
602109 956304
808182 76342
86226 890224
36087 902906
59025 830393
38441 828298
646025 975841
122798 287937
128828 109607
770612 480600
959305 994123
125557 7406
860980 740130
25087 210095
708362 221806
