442699 715375 509
523535 270926 470
607456 419146 470
368290 928921 525
688699 941742 525
737256 201022 509
769449 779043 437
356076 231332 441
639064 930506 525
867944 512811 525
202650 762541 509
223699 671453 509
101948 336029 443
656356 608581 509
25762 913845 525
180285 297679 443
928800 623075 525
23900 908651 525
567208 513281 452
786758 71007 509
945604 568206 525
694350 758784 504
297094 204694 443
749294 63764 509
574710 945278 525
82173 398254 443
806807 466694 509
244574 418639 449
39148 910606 525
700261 413955 509
451700 18151 449
727890 547048 509
155999 241322 443
221252 794676 509
178410 517151 470
485822 422225 444
386171 343648 441
535883 156177 470
623623 587391 447
518436 906937 525
335089 851011 525
425846 328870 449
460785 919204 525
209704 184613 373
474050 477507 382
296250 638488 509
845711 194961 525
168899 53161 383
520634 16178 470
88638 966630 525
154636 624171 470
607796 940664 525
209807 921271 525
221793 442926 449
82286 722578 509
576833 737610 509
752107 313304 509
435462 120310 449
562541 289725 470
733968 563509 509
542300 776049 509
923980 523893 525
335688 98453 443
667618 355676 509
592873 155311 470
113428 30846 354
729818 96160 509
367256 205609 443
704674 676145 504
233871 828962 509
880072 969916 507
962985 292180 525
571696 461425 470
340736 366174 441
604100 548827 434
641992 701484 442
620021 824721 509
568045 844923 525
593800 848372 525
161632 326535 443
311085 65612 443
536940 458076 470
905033 552010 525
478738 287635 449
440926 466131 444
49911 360719 443
19327 957234 525
756480 881321 525
901197 169386 525
301855 943913 525
641454 220127 509
682359 259347 509
913931 36348 525
976829 148051 525
789361 937200 525
707689 810677 468
955328 151700 525
620621 806064 509
697407 222422 509
811176 947331 525
915759 972438 507
990476 324810 525
466989 320954 449
755534 663012 504
532757 535318 377
247641 227070 443
992294 162617 525
318958 80744 443
90794 330536 443
45297 607541 470
631595 248287 509
711156 54906 509
779602 945818 525
632876 495943 509
603174 139555 470
321602 138230 443
604185 146380 470
365135 86907 443
450460 884498 525
78009 167096 383
7791 558452 470
758930 827365 468
110345 656205 509
81860 179226 383
124818 485245 449
309891 868799 525
781656 124544 509
766663 122261 509
650750 919605 525
984687 790013 525
952644 338514 525
730690 471621 509
578868 586867 434
971998 55811 525
593769 585926 403
404149 26345 443
74754 205876 383
767647 290581 509
164845 988347 525
113842 339718 443
230590 245089 443
416568 992920 525
145597 201763 383
962789 879817 507
783933 988397 525
846625 680936 525
253348 102594 443
400147 613963 470
486390 459636 444
323595 270365 389
299701 506972 449
920377 149743 525
695495 668510 442
219622 571814 470
953189 166161 525
578924 754746 509
570141 148963 470
819648 712269 468
362970 111227 443
725633 610708 509
749640 123162 509
701647 527622 509
133464 967921 525
527710 768206 509
203177 280706 443
555388 677815 509
128373 663056 509
952380 229444 525
549567 93851 470
631898 423676 509
194115 705078 509
902573 621631 525
625609 305951 470
316915 858794 525
539654 12200 470
782734 180934 509
423926 864615 525
521047 356846 470
534963 835658 509
569693 400162 470
258908 345067 407
757435 672684 504
534913 306694 470
597385 413233 470
412997 893203 525
542907 659704 509
266338 764637 509
239100 841753 525
771821 354276 509
127208 767926 509
669250 819305 504
105517 284435 443
156327 190149 370
497155 202910 449
598815 76369 470
799527 512421 509
879652 931985 476
25892 306182 443
50 702623 509
272548 97591 443
389346 695738 509
171729 123380 383
454737 50068 449
303751 166907 443
881084 568524 525
546924 573989 421
139919 358743 443
756621 233009 509
412770 345774 449
709709 470305 509
642979 925716 525
808197 909412 525
154956 543158 470
495071 930900 525
755518 155334 509
