75895 364215 443
76609 406457 443
626104 286223 470
103994 769294 509
239159 149542 443
231950 633955 509
493486 794595 509
695271 487151 509
717560 547691 509
706195 37587 509
943826 754202 525
965820 892163 507
497480 975405 525
555277 360748 470
170498 357356 443
647826 194299 509
366402 353717 410
380681 790583 509
539391 542990 408
428447 876598 525
830854 601447 509
440395 924427 525
642147 591378 509
488718 574655 470
214371 621425 470
251610 516961 470
59091 151441 375
618992 51517 470
858367 327005 525
394442 652606 509
699487 344711 509
48991 745854 509
854391 405785 525
636227 170773 509
232425 75817 443
749043 588814 509
341846 631867 509
292921 519882 470
818732 657186 504
418652 816247 509
892357 74440 525
190670 113682 383
307275 997301 525
109400 7627 354
416794 542073 470
192156 295520 443
92031 484022 449
35417 747727 509
588267 73907 470
554788 405399 470
91659 843196 525
315534 300532 384
593112 855031 525
310636 360452 441
925668 658209 525
840771 51596 525
326291 30794 443
848493 918385 476
705181 812354 468
633447 125610 509
653058 70027 509
806697 704328 504
494663 524199 470
738626 571149 509
286244 423028 449
920865 280619 525
10428 258020 443
92912 792278 509
47414 253185 443
825340 832555 419
897996 483976 525
377476 836212 509
531554 378486 470
578016 662134 509
351754 678402 509
25272 602379 470
915397 105938 525
876589 975079 507
849270 887511 445
2964 457550 449
562252 418203 470
341767 284711 389
475691 304995 449
775993 915362 525
761670 247649 509
99547 136682 354
830767 661734 504
82216 49987 351
133522 84322 354
384945 386811 348
723722 205230 509
697020 465825 509
663568 340761 509
728680 787906 468
625751 211603 470
237133 303895 407
457888 109235 449
668153 123743 509
178018 645015 509
547456 716602 509
5445 904537 525
452230 558716 470
680876 963679 525
338890 580687 470
513852 545718 439
563584 508887 470
626551 667171 442
937787 151690 525
171249 446832 449
29339 524673 470
828960 93647 509
434772 203536 449
131000 913534 525
774854 601197 509
854132 971113 507
925881 920101 445
238192 626087 470
810568 52543 509
328225 478376 449
580204 159264 470
709832 245000 509
331451 455046 449
270905 248526 407
604030 780084 509
769351 438423 509
989361 728146 525
718933 774673 468
490865 298228 449
537511 348664 470
360377 339937 441
310149 862686 525
558102 645758 509
630268 194150 509
333959 140685 443
141662 111977 349
111068 993858 525
440041 351732 449
647093 292123 509
84537 930388 525
796672 524996 509
744084 741017 349
56609 889516 525
484548 775032 509
541744 825409 509
572031 24961 470
526614 146072 470
704246 85488 509
866371 514400 525
965689 497720 525
261663 90632 443
395600 362970 436
723735 540683 509
592747 323520 470
192926 387507 443
275261 993434 525
632786 543638 509
704321 311259 509
875579 908083 445
20398 77303 351
192078 642443 509
733033 228378 509
905699 320582 525
826211 409532 509
354866 869195 525
164650 655239 509
89672 824255 509
997788 265412 525
251479 853639 525
282534 831486 509
866544 700969 525
413074 148474 449
714650 89925 509
871195 643893 525
862512 392854 525
631703 665082 429
548409 177970 470
793532 657387 504
728216 813992 468
470737 687731 509
484294 326230 449
927356 606703 525
887349 752932 525
335863 121887 443
565862 709959 509
482134 411562 444
684581 561911 509
399218 442510 449
704162 129964 509
634179 349913 509
102519 435068 449
581203 207366 470
699295 81692 509
82059 58879 351
459594 323820 449
383584 783247 509
569285 863372 525
445829 714605 509
5565 98075 351
757747 827040 468
467246 612666 470
480766 89244 449
397219 2530 443
875763 235727 525
945435 342927 525
178555 917985 525
44073 42088 288
476344 150554 449
449192 202596 449
479348 606846 470
40090 299856 443
447069 540020 470
181122 559388 470
134249 262327 443
818238 947440 525
433133 743093 509
626904 291265 509
177436 708671 509
257042 639965 509
828337 447313 509
516582 108452 470
456668 693368 509
621889 163759 470
333776 723198 509
183142 376322 443
159710 774657 509
483848 91476 449
714468 507209 509
474420 508371 426
180406 392041 443
867646 682544 525
193726 863268 525
815252 161306 509
965972 376419 525
872696 526003 525
320112 377165 441
873763 509078 525
825690 315596 509
282457 708443 509
304400 68288 443
537377 716314 509
549085 400617 470
187885 574438 470
