115169 930477
831283 565915
781218 906252
625606 464797
509838 117486
355010 651145
318091 262223
659909 389870
445449 35122
637281 759677
13313 175938
352029 207434
443220 47775
858721 525155
111846 782821
997050 75682
493041 203824
869201 820312
941046 784263
217773 459721
245688 515343
965385 746972
552367 986203
6542 509493
90612 928562
177891 642527
371399 272874
166803 241710
472017 201362
613819 845084
149225 759192
885433 602170
130919 210185
277621 115895
273296 361293
500567 97409
549965 509107
873383 983581
220925 426653
999371 326479
745880 316284
197480 621736
58175 781296
360452 726144
487014 375593
569078 114032
79344 13019
766550 352728
658756 980531
488584 836682
715654 996265
453090 7196
332070 322410
657967 752730
791354 99635
728855 381903
980799 18559
899051 413468
678646 542859
575744 764826
114992 609262
657021 837087
905634 24510
918506 422210
913900 166209
755455 940920
495301 734399
808606 718109
600292 515507
656283 794459
962046 372336
804077 228072
774474 427630
423695 465136
542443 861752
285544 927057
351058 698487
453106 82416
918997 775675
480426 171358
214571 906576
423113 45111
275027 746387
822624 691839
883847 886033
202263 33448
794395 142993
673850 553285
170740 877662
376654 217274
911414 216451
944462 599741
24697 825977
324267 674035
650655 775999
55454 984382
755658 462130
66191 330906
252110 496780
256666 713049
97420 588714
413334 179155
232578 156677
322561 668878
442703 503843
980803 955671
768589 536722
468638 582653
661685 909384
329699 737160
936190 220728
744425 592841
343691 940144
771945 742197
744289 526725
319872 9634
239070 996109
490601 550451
171663 475814
601939 859671
175681 3109
232885 481206
507328 848088
962881 502847
70117 144541
847570 701982
612397 864158
492942 984721
377259 273914
87154 953810
854916 310738
691415 875956
77797 283808
264170 437261
979540 946730
983072 784754
913763 805503
219421 304193
958514 625726
847315 303880
246124 542768
575833 459583
225971 988052
108262 205181
397297 233313
769421 589614
45697 219268
377774 653422
311807 229190
954213 578979
843663 750469
145423 52079
126093 92160
482005 333964
561192 806835
953071 771075
79075 207058
650888 68634
339619 284113
321693 824447
694480 766556
715639 448563
150255 13362
512403 218922
346024 713714
249117 439291
735828 891079
911522 627700
815932 62612
302550 435834
735555 831186
866549 442277
446740 338068
755490 412930
45588 174505
582682 422556
702658 397805
388322 353767
571033 756051
917721 792735
680897 956620
176634 573770
716420 291432
651752 470156
466441 814741
751217 769802
145625 690157
813753 520845
78658 750770
655243 773298
971569 784585
375302 619425
366603 425628
357195 444977
128599 68884
241064 66384
792327 288023
327772 987945
103918 313410
549659 429651
372258 6176
390357 781755
289586 535294
543743 948696
883878 902734
955080 546453
428618 722095
404115 949790
136443 318917
678600 539279
951807 827132
918398 459435
997766 995366
415620 703275
779263 581179
645320 721377
430305 499852
832206 887639
991804 917107
879073 343409
1894 843572
495391 500538
816675 633566
37059 923623
462489 452316
768217 908913
395607 975354
340286 366136
