490476 497673
779331 288035
478984 96490
34678 630203
142434 494671
985845 63775
513660 842251
494101 811877
874390 34574
263221 556993
935637 908975
649540 850890
159572 603720
359411 452467
262643 602396
632806 960647
559297 842954
350764 774158
716032 432681
522227 340228
684686 741042
657121 831825
232397 937181
805732 160253
220962 695627
641276 938546
230790 84295
267606 757806
692731 936010
295203 199116
94168 605776
618081 558248
411843 396159
226616 509910
307747 696469
31727 91698
406362 712575
128205 120638
923445 95048
292337 202532
66270 316303
563349 27855
728417 991293
558165 710680
620387 649374
435563 988187
549008 956650
849920 755116
23658 960920
47962 731236
330946 720838
230831 167148
933393 529889
964521 737814
169106 780699
956870 812534
469885 248218
82196 326231
446137 712897
466770 621104
507592 469064
469676 4876
261975 890238
485330 589442
210509 742997
72826 89348
604481 121780
46448 662834
307189 820996
785819 223669
216044 179255
507788 105648
405564 652678
191294 91615
429739 257685
408364 878597
832783 541749
866489 101847
634041 467105
361979 726089
585496 834014
926039 148741
297736 27754
323766 2141
948054 414468
24810 618677
32106 75070
693198 525720
181522 760833
253848 79147
839066 460905
775251 312792
379305 647721
287850 942860
655761 933109
403366 68243
411297 16858
984910 966513
184201 669022
429795 60510
189789 718294
981795 930808
948941 123069
985039 390529
180586 791048
538311 282378
496915 617162
799740 732745
422279 36615
443830 258266
138232 224535
688792 340967
252249 304465
839563 838301
707125 929625
383697 300506
560233 705194
959963 333449
520310 823798
68014 957880
353161 806027
40700 814969
302714 655764
31893 469478
275256 456939
970776 653880
601615 243395
247543 302262
169750 582330
72917 695185
944567 571394
277259 297674
291961 825336
415942 364363
918879 197974
771436 308936
238104 459815
853100 271914
990948 754568
8742 874527
441896 353947
405313 659047
931690 722867
407893 219496
724146 754654
456000 425690
650064 846216
621492 830182
647081 594443
797800 711236
682969 271693
886463 975690
876536 983498
396398 90521
569896 452599
525399 83607
435554 376464
440412 262364
837194 597638
735618 776288
982510 814054
47237 810180
357068 452416
721875 470749
187487 590698
777144 321550
124199 623129
562277 509812
801636 681478
539007 948296
222414 91555
151160 928212
114818 419924
321540 833694
726440 996584
543279 826974
945209 212554
487225 534830
456101 610469
759402 907857
69628 410233
424231 991808
725490 60264
593947 676253
674232 886123
766249 838805
811673 53867
192290 668163
990512 969375
939837 842953
189822 866077
947422 920735
761053 449999
717783 873875
854884 307877
418055 245869
27866 196225
471347 867748
605745 641503
255728 997960
842911 476116
871006 209962
526067 538400
500696 470631
467420 498597
147412 272804
406662 7196
180663 955832
977343 750464
246928 479663
586216 749927
362867 704806
997268 153663
248354 583621
864604 465828
995706 628607
44157 872722
914449 471884
67463 806314
781901 694179
419662 218715
601320 743810
845367 200493
955838 769188
721684 952749
808427 271620
342883 148075
533662 857069
359710 232998
131341 326274
688979 40563
479844 550749
681306 672060
975174 274089
479874 281399
26356 40056
287978 14657
622930 56522
787299 265569
729714 337103
54881 162803
287078 248754
547449 536816
205113 628543
793132 358075
327094 652310
422274 393239
428152 154170
371084 856182
622161 363206
801205 176942
874634 212752
514166 831193
37978 828211
343385 884588
698158 479503
124446 647517
554018 551827
187133 129290
942391 811484
544033 718775
207466 814856
798618 296898
921127 481023
470396 355049
928946 567593
877638 834024
986716 649987
521602 12917
428013 530734
979385 936103
499845 905818
378893 317234
829101 247388
550279 613033
